%YAML 1.1
%TAG !u! tag:unity3d.com,2011:
--- !u!114 &11400000
MonoBehaviour:
  m_ObjectHideFlags: 0
  m_CorrespondingSourceObject: {fileID: 0}
  m_PrefabInternal: {fileID: 0}
  m_GameObject: {fileID: 0}
  m_Enabled: 1
  m_EditorHideFlags: 0
  m_Script: {fileID: 11500000, guid: 28f99c5e0cd31074d85d41a3300f6a9f, type: 3}
  m_Name: Default Algorithm
  m_EditorClassIdentifier: 
  firstPassAmplifier: 309
  firstPassExponentBase: 2
  firstPassDividerForLevelExponent: 7
  secondPassDivider: 1
  _maxLevel: 99
  buttonSize: 72
  maxLevelColor: {r: 0.9622642, g: 0.30411178, b: 0.30411178, a: 1}
  minLevelColor: {r: 0.91171235, g: 0.9811321, b: 0.91930974, a: 1}
